\relax 
\providecommand\hyper@newdestlabel[2]{}
\providecommand\HyperFirstAtBeginDocument{\AtBeginDocument}
\HyperFirstAtBeginDocument{\ifx\hyper@anchor\@undefined
\global\let\oldcontentsline\contentsline
\gdef\contentsline#1#2#3#4{\oldcontentsline{#1}{#2}{#3}}
\global\let\oldnewlabel\newlabel
\gdef\newlabel#1#2{\newlabelxx{#1}#2}
\gdef\newlabelxx#1#2#3#4#5#6{\oldnewlabel{#1}{{#2}{#3}}}
\AtEndDocument{\ifx\hyper@anchor\@undefined
\let\contentsline\oldcontentsline
\let\newlabel\oldnewlabel
\fi}
\fi}
\global\let\hyper@last\relax 
\gdef\HyperFirstAtBeginDocument#1{#1}
\providecommand\HyField@AuxAddToFields[1]{}
\providecommand\HyField@AuxAddToCoFields[2]{}
\citation{SunCVPR14}
\citation{Sunnips2014}
\citation{Kanmeina16}
\citation{CFP}
\citation{MasiCVPR16}
\citation{ZhuNIPS2014}
\citation{Kanmeina16}
\citation{3dmm}
\citation{roth2015}
\citation{zhu2016face}
\citation{zhu2016face}
\citation{tran2016regressing}
\citation{ZhuXYCVPR15}
\citation{tran2017}
\citation{goodfellow2014generative}
\@writefile{toc}{\contentsline {section}{\numberline {1}\hskip -1em.\nobreakspace  {}Introduction}{1}{section.1}}
\@writefile{brf}{\backcite{SunCVPR14,Sunnips2014}{{1}{1}{section.1}}}
\@writefile{brf}{\backcite{Kanmeina16,CFP}{{1}{1}{section.1}}}
\@writefile{brf}{\backcite{MasiCVPR16}{{1}{1}{section.1}}}
\@writefile{brf}{\backcite{ZhuNIPS2014,Kanmeina16}{{1}{1}{section.1}}}
\@writefile{brf}{\backcite{3dmm}{{1}{1}{section.1}}}
\@writefile{brf}{\backcite{roth2015,zhu2016face}{{1}{1}{section.1}}}
\@writefile{brf}{\backcite{zhu2016face,tran2016regressing}{{1}{1}{section.1}}}
\@writefile{brf}{\backcite{ZhuXYCVPR15}{{1}{1}{section.1}}}
\@writefile{brf}{\backcite{tran2017}{{1}{1}{section.1}}}
\@writefile{brf}{\backcite{goodfellow2014generative}{{1}{1}{section.1}}}
\citation{3dmm}
\citation{roth2015}
\citation{jourabloo2015pose}
\citation{zhu2016face}
\citation{hassner2014}
\citation{ferrari2016}
\citation{ZhuXYCVPR15}
\citation{sagonas2015}
\citation{yang2015}
\citation{yim2015}
\citation{goodfellow2014generative}
\citation{porikli2016}
\citation{denton2015}
\citation{brox2015}
\citation{3dgan}
\citation{dcgan}
\citation{infogan}
\citation{tran2017}
\citation{ZhuNIPS2014}
\citation{Kanmeina16}
\citation{zhuzhenyao2013}
\citation{chen2015}
\citation{MasiCVPR16}
\@writefile{toc}{\contentsline {section}{\numberline {2}\hskip -1em.\nobreakspace  {}Related Work}{2}{section.2}}
\@writefile{brf}{\backcite{3dmm}{{2}{2}{section.2}}}
\@writefile{brf}{\backcite{roth2015}{{2}{2}{section.2}}}
\@writefile{brf}{\backcite{jourabloo2015pose,zhu2016face}{{2}{2}{section.2}}}
\@writefile{brf}{\backcite{hassner2014}{{2}{2}{section.2}}}
\@writefile{brf}{\backcite{ferrari2016}{{2}{2}{section.2}}}
\@writefile{brf}{\backcite{ZhuXYCVPR15}{{2}{2}{section.2}}}
\@writefile{brf}{\backcite{sagonas2015}{{2}{2}{section.2}}}
\@writefile{brf}{\backcite{yang2015}{{2}{2}{section.2}}}
\@writefile{brf}{\backcite{yim2015}{{2}{2}{section.2}}}
\@writefile{brf}{\backcite{goodfellow2014generative}{{2}{2}{section.2}}}
\@writefile{brf}{\backcite{porikli2016}{{2}{2}{section.2}}}
\@writefile{brf}{\backcite{denton2015,brox2015}{{2}{2}{section.2}}}
\@writefile{brf}{\backcite{3dgan}{{2}{2}{section.2}}}
\@writefile{brf}{\backcite{dcgan}{{2}{2}{section.2}}}
\@writefile{brf}{\backcite{infogan}{{2}{2}{section.2}}}
\@writefile{brf}{\backcite{tran2017}{{2}{2}{section.2}}}
\@writefile{brf}{\backcite{ZhuNIPS2014}{{2}{2}{figure.1}}}
\@writefile{brf}{\backcite{Kanmeina16}{{2}{2}{figure.1}}}
\@writefile{brf}{\backcite{zhuzhenyao2013}{{2}{2}{figure.1}}}
\citation{tran2017}
\citation{jourabloo2015pose}
\citation{zhu2016face}
\citation{jourabloo2015pose}
\citation{yi2014learning}
\citation{zhu2016face}
\citation{zhu2016face}
\citation{tran2017}
\@writefile{lof}{\contentsline {figure}{\numberline {1}{\ignorespaces The proposed framework for large-pose face frontalization. $R$ is the reconstructor for 3DMM coefficients estimation. $G$ is the generator to synthesize a frontal face. $D$ is the discriminator to make real/fake decision. $C$ is the recognizer for identity classification. }}{3}{figure.1}}
\newlabel{fig:overview}{{1}{3}{The proposed framework for large-pose face frontalization. $R$ is the reconstructor for 3DMM coefficients estimation. $G$ is the generator to synthesize a frontal face. $D$ is the discriminator to make real/fake decision. $C$ is the recognizer for identity classification}{figure.1}{}}
\@writefile{brf}{\backcite{chen2015}{{3}{2}{figure.1}}}
\@writefile{brf}{\backcite{MasiCVPR16}{{3}{2}{figure.1}}}
\@writefile{toc}{\contentsline {section}{\numberline {3}\hskip -1em.\nobreakspace  {}Proposed Approach}{3}{section.3}}
\@writefile{brf}{\backcite{tran2017}{{3}{3}{section.3}}}
\@writefile{toc}{\contentsline {subsection}{\numberline {3.1}\hskip -1em.\nobreakspace  {}Reconstructor}{3}{subsection.3.1}}
\@writefile{brf}{\backcite{jourabloo2015pose, zhu2016face}{{3}{3.1}{equation.3.1}}}
\@writefile{brf}{\backcite{jourabloo2015pose}{{3}{3.1}{equation.3.1}}}
\@writefile{brf}{\backcite{yi2014learning}{{3}{3.1}{equation.3.1}}}
\@writefile{brf}{\backcite{zhu2016face}{{3}{3.1}{equation.3.1}}}
\newlabel{eq:objR}{{2}{3}{\hskip -1em.~Reconstructor}{equation.3.2}{}}
\@writefile{brf}{\backcite{zhu2016face}{{3}{3.1}{equation.3.2}}}
\@writefile{toc}{\contentsline {subsection}{\numberline {3.2}\hskip -1em.\nobreakspace  {}Generator}{3}{subsection.3.2}}
\@writefile{brf}{\backcite{tran2017}{{3}{3.2}{subsection.3.2}}}
\citation{goodfellow2014generative}
\newlabel{eqn:grec}{{3}{4}{\hskip -1em.~Generator}{equation.3.3}{}}
\newlabel{eqn:gtv}{{4}{4}{\hskip -1em.~Generator}{equation.3.4}{}}
\newlabel{eqn:gtv}{{5}{4}{\hskip -1em.~Generator}{equation.3.5}{}}
\@writefile{toc}{\contentsline {subsection}{\numberline {3.3}\hskip -1em.\nobreakspace  {}Discriminator}{4}{subsection.3.3}}
\@writefile{brf}{\backcite{goodfellow2014generative}{{4}{3.3}{subsection.3.3}}}
\newlabel{eq:objD}{{6}{4}{\hskip -1em.~Discriminator}{equation.3.6}{}}
\@writefile{toc}{\contentsline {subsection}{\numberline {3.4}\hskip -1em.\nobreakspace  {}Recognizer}{4}{subsection.3.4}}
\citation{zhu2016face}
\citation{zhu2016face}
\citation{yi2014learning}
\newlabel{eq:objC}{{8}{5}{\hskip -1em.~Recognizer}{equation.3.8}{}}
\newlabel{eq:objall}{{10}{5}{\hskip -1em.~Recognizer}{equation.3.10}{}}
\@writefile{toc}{\contentsline {section}{\numberline {4}\hskip -1em.\nobreakspace  {}Implementation Details}{5}{section.4}}
\newlabel{sec:implementation}{{4}{5}{\hskip -1em.~Implementation Details}{section.4}{}}
\@writefile{brf}{\backcite{zhu2016face}{{5}{4}{section.4}}}
\@writefile{brf}{\backcite{zhu2016face}{{5}{4}{section.4}}}
\@writefile{brf}{\backcite{yi2014learning}{{5}{4}{section.4}}}
\@writefile{toc}{\contentsline {section}{\numberline {5}\hskip -1em.\nobreakspace  {}Experiments}{5}{section.5}}
\@writefile{toc}{\contentsline {subsection}{\numberline {5.1}\hskip -1em.\nobreakspace  {}Settings and Datasets}{5}{subsection.5.1}}
\@writefile{brf}{\backcite{}{{5}{5.1}{subsection.5.1}}}
\@writefile{brf}{\backcite{}{{5}{5.1}{subsection.5.1}}}
\@writefile{brf}{\backcite{}{{5}{5.1}{subsection.5.1}}}
\@writefile{lot}{\contentsline {table}{\numberline {1}{\ignorespaces Landmark alignment results comparison on ALFW2000.}}{6}{table.1}}
\newlabel{tab:lmkerr}{{1}{6}{Landmark alignment results comparison on ALFW2000}{table.1}{}}
\@writefile{toc}{\contentsline {subsection}{\numberline {5.2}\hskip -1em.\nobreakspace  {}3D Reconstruction}{6}{subsection.5.2}}
\@writefile{brf}{\backcite{}{{6}{5.2}{subsection.5.2}}}
\@writefile{brf}{\backcite{}{{6}{5.2}{table.1}}}
\@writefile{lof}{\contentsline {figure}{\numberline {2}{\ignorespaces (a) landmark alignment results; (b) original 3dmm; (c) 3dmm after frontalization; (d) ground truth 3dmm from xiangyu zhu. (e) results from 3dmm regression. \leavevmode {\color  {red}UPDATE LAST 4 ROWS}}}{6}{figure.2}}
\newlabel{fig:3dmm}{{2}{6}{(a) landmark alignment results; (b) original 3dmm; (c) 3dmm after frontalization; (d) ground truth 3dmm from xiangyu zhu. (e) results from 3dmm regression. \textcolor {red}{UPDATE LAST 4 ROWS}}{figure.2}{}}
\@writefile{toc}{\contentsline {subsection}{\numberline {5.3}\hskip -1em.\nobreakspace  {}Face Recognition}{6}{subsection.5.3}}
\@writefile{brf}{\backcite{}{{6}{5.3}{subsection.5.3}}}
\@writefile{lot}{\contentsline {table}{\numberline {2}{\ignorespaces Face verification comparison of accuracy (ACC) and area-under-curve (AUC). The average and standard deviation over $10$ folders are reported.}}{6}{table.2}}
\newlabel{tab:lfw}{{2}{6}{Face verification comparison of accuracy (ACC) and area-under-curve (AUC). The average and standard deviation over $10$ folders are reported}{table.2}{}}
\citation{klare2015pushing}
\citation{klare2015pushing}
\citation{wang2016face}
\citation{MasiCVPR16}
\citation{chen2016unconstrained}
\citation{zhu2013deep}
\citation{ZhuNIPS2014}
\citation{yim2015}
\citation{tran2017}
\citation{tran2017}
\bibstyle{ieee}
\bibdata{egbib}
\@writefile{lof}{\contentsline {figure}{\numberline {3}{\ignorespaces Face frontalization results on LFW. (a) input; (b) 3d; (c) HPEN; (d) ours. }}{7}{figure.3}}
\newlabel{fig:lfw}{{3}{7}{Face frontalization results on LFW. (a) input; (b) 3d; (c) HPEN; (d) ours}{figure.3}{}}
\@writefile{brf}{\backcite{}{{7}{5.3}{table.2}}}
\@writefile{toc}{\contentsline {subsection}{\numberline {5.4}\hskip -1em.\nobreakspace  {}Ablation Study}{7}{subsection.5.4}}
\@writefile{brf}{\backcite{tran2017}{{7}{5.4}{subsection.5.4}}}
\@writefile{toc}{\contentsline {section}{\numberline {6}\hskip -1em.\nobreakspace  {}Conclusions}{7}{section.6}}
\@writefile{lot}{\contentsline {table}{\numberline {3}{\ignorespaces Performance comparison on IJB-A dataset. }}{8}{table.3}}
\@writefile{brf}{\backcite{klare2015pushing}{{8}{3}{table.3}}}
\@writefile{brf}{\backcite{klare2015pushing}{{8}{3}{table.3}}}
\@writefile{brf}{\backcite{wang2016face}{{8}{3}{table.3}}}
\@writefile{brf}{\backcite{MasiCVPR16}{{8}{3}{table.3}}}
\@writefile{brf}{\backcite{chen2016unconstrained}{{8}{3}{table.3}}}
\newlabel{tab:ijba}{{3}{8}{Performance comparison on IJB-A dataset}{table.3}{}}
\@writefile{lot}{\contentsline {table}{\numberline {4}{\ignorespaces \relax \fontsize  {9}{11}\selectfont  \abovedisplayskip 8.5\p@ plus3\p@ minus4\p@ \abovedisplayshortskip \z@ plus2\p@ \belowdisplayshortskip 4\p@ plus2\p@ minus2\p@ \def \leftmargin \leftmargini \parsep 4\p@ plus2\p@ minus\p@ \topsep 8\p@ plus2\p@ minus4\p@ \itemsep 4\p@ plus2\p@ minus\p@ {\leftmargin \leftmargini \topsep 4\p@ plus2\p@ minus2\p@ \parsep 2\p@ plus\p@ minus\p@ \itemsep \parsep }\belowdisplayskip \abovedisplayskip Performance comparison on Multi-PIE dataset. }}{8}{table.4}}
\newlabel{tab:MTPIE_results}{{4}{8}{\small Performance comparison on Multi-PIE dataset}{table.4}{}}
\@writefile{brf}{\backcite{zhu2013deep}{{8}{4}{table.4}}}
\@writefile{brf}{\backcite{ZhuNIPS2014}{{8}{4}{table.4}}}
\@writefile{brf}{\backcite{yim2015}{{8}{4}{table.4}}}
\@writefile{brf}{\backcite{tran2017}{{8}{4}{table.4}}}
\newlabel{tab:multipie}{{4}{8}{\small Performance comparison on Multi-PIE dataset}{table.4}{}}
\@writefile{lof}{\contentsline {figure}{\numberline {4}{\ignorespaces  Visual results from ablation study. (a) input images. (b) $\mathbb  {M}$. (c) $\mathbb  {M} \delimiter "026E30F \{C\}$. (d)$\mathbb  {M} \delimiter "026E30F \{D\}$. (e) $\mathbb  {M} \delimiter "026E30F \{R\}$. \leavevmode {\color  {red}HOLD PLACE, NEED UPDATE}}}{8}{figure.4}}
\newlabel{fig:ablation}{{4}{8}{Visual results from ablation study. (a) input images. (b) $\mathbb {M}$. (c) $\mathbb {M} \backslash \{C\}$. (d)$\mathbb {M} \backslash \{D\}$. (e) $\mathbb {M} \backslash \{R\}$. \textcolor {red}{HOLD PLACE, NEED UPDATE}}{figure.4}{}}
